Dean Marchiori - Optimal Stopping Problems
…
set.seed(111)
n <- 100
sims <- 1e4

knight_sims <- expand_grid(sim = 1:sims) |> 
  mutate(rankings = map(sim, ~sample(1:n))) |> 
  unnest(rankings) |> 
  group_by(sim) |> 
  mutate(stop_after_days = 1:n,
         max_rank = cummax(rankings))

knight_sims

# A tibble: 1,000,000 × 4
# Groups:   sim [10,000]
     sim rankings stop_after_days max_rank
   <int>    <int>           <int>    <int>
 1     1       78               1       78
 2     1       84               2       84
 3     1       83               3       84
 4     1       47               4       84
 5     1       25               5       84
 6     1       59               6       84
 7     1       69               7       84
 8     1       35               8       84
 9     1       72               9       84
10     1       26              10       84
# … with 999,990 more rows
…
Results

results <- knight_sims |>  
  mutate(result = map_int(stop_after_days, ~optimal_stop(rankings, .x))) |> 
  mutate(is_optimal = result == max(rankings, na.rm = TRUE)) |> 
  group_by(stop_after_days) |> 
  summarise(optimal_stops = sum(is_optimal, na.rm = TRUE),
            n = n(),
            optimal_stop_pct = optimal_stops / n,
            var = sqrt(optimal_stop_pct * (1 - optimal_stop_pct) / n))

results

# A tibble: 100 × 5
   stop_after_days optimal_stops     n optimal_stop_pct     var
             <int>         <int> <int>            <dbl>   <dbl>
 1               1           533 10000           0.0533 0.00225
 2               2           846 10000           0.0846 0.00278
 3               3          1116 10000           0.112  0.00315
 4               4          1352 10000           0.135  0.00342
 5               5          1572 10000           0.157  0.00364
 6               6          1771 10000           0.177  0.00382
 7               7          1941 10000           0.194  0.00396
 8               8          2098 10000           0.210  0.00407
 9               9          2225 10000           0.222  0.00416
10              10          2360 10000           0.236  0.00425
# … with 90 more rows
…
